{
    "kratos_admin": {
        "url": "http://localhost:4434"
    },
    "jwt_validator": {
        "x": "AbT6ZBeVRnyGvRVFDKfRYs6xlV8CMa7VCf3lo9gMQCWi5F-x49We9_itl9Z_x5JQBNLybY0uCylkgzR1RGB8vwWh",
        "y": "AWk67yP62-qFh3IsF-t5k-tsuisflwCkL5nBPgXTP7IRNBGq_LC_Qq1nmWmvgJPIQVWGvkgzs5P23bQ7lLE3FxqZ"
    }
}