{
    "$id": "https://schemas.rhyzome.dev/ory/kratos/robot.schema.json",
    "$schema": "http://json-schema.org/draft-07/schema#",
    "title": "Robot🤖",
    "type": "object",
    "properties": {
      "traits": {
        "type": "object",
        "properties": {
          "apikey": {
            "type": "string",
            "minLength": 3,
            "ory.sh/kratos": {
              "credentials": {
                "password": {
                  "identifier": true
                }
              }
            }
          }
        },
        "required": [
          "apikey"
        ],
        "additionalProperties": false
      }
    }
  }
  